<?xml version="1.0" encoding="UTF-8" standalone="no"?>
<svg width="22.5778mm" height="22.5778mm"
 viewBox="0 0 800 800"
 xmlns="http://www.w3.org/2000/svg" xmlns:xlink="http://www.w3.org/1999/xlink"  version="1.2" baseProfile="tiny">
<title>Qt SVG Document</title>
<desc>Generated with Qt</desc>
<defs>
</defs>
<g fill="none" stroke="black" stroke-width="1" fill-rule="evenodd" stroke-linecap="square" stroke-linejoin="bevel" >

<g fill="#000000" fill-opacity="1" stroke="none" transform="matrix(1,0,0,1,0,0)"
font-family="Segoe UI" font-size="112.5" font-weight="400" font-style="normal" 
>
<rect x="350" y="0" width="100" height="800"/>
</g>

<g fill="#000000" fill-opacity="1" stroke="none" transform="matrix(1,0,0,1,0,0)"
font-family="Segoe UI" font-size="112.5" font-weight="400" font-style="normal" 
>
<rect x="0" y="350" width="800" height="100"/>
</g>
</g>
</svg>
