<?xml version="1.0" encoding="utf-8"?>
<!-- Svg Vector Icons : http://www.onlinewebfonts.com/icon -->
<!DOCTYPE svg PUBLIC "-//W3C//DTD SVG 1.1//EN" "http://www.w3.org/Graphics/SVG/1.1/DTD/svg11.dtd">
<svg version="1.1" xmlns="http://www.w3.org/2000/svg" xmlns:xlink="http://www.w3.org/1999/xlink" x="0px" y="0px" viewBox="0 0 1000 1000" enable-background="new 0 0 1000 1000" xml:space="preserve">
<metadata> Svg Vector Icons : http://www.onlinewebfonts.com/icon </metadata>
<g><g transform="translate(0.000000,511.000000) scale(0.100000,-0.100000)"><path d="M1701.2,4976.7c-21.4-16.6-49.9-61.8-64.2-97.5c-38-104.6-33.3-8568.4,7.1-8646.9c40.4-78.4,135.5-130.8,211.6-111.7c40.4,11.9,368.5,340,922.5,924.8c475.5,501.6,903.4,953.4,953.4,1003.3l90.3,92.7l703.7-1421.7c385.2-782.2,720.4-1443.1,741.8-1466.9c21.4-23.8,71.3-42.8,114.1-42.8c99.9,0,1483.5,599.1,1540.6,668.1c21.4,28.5,40.4,76.1,40.4,109.4c0,30.9-316.2,665.7-701.4,1409.8C5876-1861,5559.8-1245.2,5559.8-1238.1c0,7.1,615.8,14.3,1367.1,14.3c1336.1,0,1367,0,1414.6,47.6c30.9,30.9,47.5,78.4,47.5,137.9c0,83.2-16.6,104.6-230.6,304.3C8030-617.5,6624.9,671.1,5036.8,2128.5c-1588.2,1455-2943.3,2698.4-3012.3,2762.6C1893.8,5012.3,1786.8,5040.9,1701.2,4976.7z M4530.4,2078.5C5887.9,832.7,7155.1-332.2,7350.1-508.2l349.5-323.3l-1272-11.9C5158-855.3,5158-855.3,5105.7-907.6c-30.9-28.5-52.3-80.8-52.3-121.2c0-45.2,261.5-575.4,729.9-1478.8c401.8-772.7,727.5-1409.8,722.8-1412.2c-21.4-14.3-962.9-416.1-991.4-423.2c-23.8-4.8-266.3,461.2-772.7,1478.8c-789.3,1585.8-767.9,1552.5-920.1,1514.5c-33.3-9.5-411.3-389.9-924.8-929.6c-477.9-504-874.9-917.7-884.4-917.7c-7.1,0-14.3,1702.3-14.3,3782.6c0,3159.7,4.7,3780.2,30.9,3768.3C2048.3,4346.6,3172.9,3324.3,4530.4,2078.5z"/></g></g>
</svg>